{
  "id":"artefact",
	"name":"Artefact",
	"author":"Snrasha,DrakonST",
	"version":"1.9.1f",
        "totalConversion":"false",
        "utility":"false",
	"description":"Requires LazyLib.\nContains Noir and Looters faction.\nCompatible with Nexerelin and Version Checker.\nOriginal sprites by DrakonST, coding and kitbashes by Snrasha, writing by Gwyvern.",
	"gameVersion":"0.9.1a",
	"modPlugin":"src.data.scripts.world.Art_artefactModPlugin",
	"jars":["jars/Arte.jar"],
}
